[gd_resource type="Theme" load_steps=3 format=1]

[ext_resource path="res://Assets/UI/Fonts/PixelFont20.fnt" type="BitmapFont" id=1]
[ext_resource path="res://Assets/UI/Fonts/PixelFont16.fnt" type="BitmapFont" id=2]

[resource]

default_font = ExtResource( 2 )
/fonts/ = null
Button/colors/font_color = Color( 1, 1, 1, 1 )
Button/colors/font_color_disabled = Color( 1, 1, 1, 1 )
Button/colors/font_color_hover = Color( 1, 1, 1, 1 )
Button/colors/font_color_pressed = Color( 1, 1, 1, 1 )
Button/constants/hseparation = 0
Button/fonts/font = null
Button/styles/disabled = null
Button/styles/focus = null
Button/styles/hover = null
Button/styles/normal = null
Button/styles/pressed = null
ButtonGroup/styles/panel = null
CheckBox/colors/font_color = Color( 1, 1, 1, 1 )
CheckBox/colors/font_color_disabled = Color( 1, 1, 1, 1 )
CheckBox/colors/font_color_hover = Color( 1, 1, 1, 1 )
CheckBox/colors/font_color_pressed = Color( 1, 1, 1, 1 )
CheckBox/constants/check_vadjust = 0
CheckBox/constants/hseparation = 0
CheckBox/fonts/font = null
CheckBox/icons/checked = null
CheckBox/icons/radio_checked = null
CheckBox/icons/radio_unchecked = null
CheckBox/icons/unchecked = null
CheckBox/styles/disabled = null
CheckBox/styles/focus = null
CheckBox/styles/hover = null
CheckBox/styles/normal = null
CheckBox/styles/pressed = null
CheckButton/colors/font_color = Color( 1, 1, 1, 1 )
CheckButton/colors/font_color_disabled = Color( 1, 1, 1, 1 )
CheckButton/colors/font_color_hover = Color( 1, 1, 1, 1 )
CheckButton/colors/font_color_pressed = Color( 1, 1, 1, 1 )
CheckButton/constants/check_vadjust = 0
CheckButton/constants/hseparation = 0
CheckButton/fonts/font = null
CheckButton/icons/off = null
CheckButton/icons/on = null
CheckButton/styles/disabled = null
CheckButton/styles/focus = null
CheckButton/styles/hover = null
CheckButton/styles/normal = null
CheckButton/styles/pressed = null
ColorPicker/constants/color_width = 0
ColorPicker/constants/hseparator = 0
ColorPicker/constants/label_width = 0
ColorPicker/constants/value_height = 0
ColorPicker/constants/value_width = 0
ColorPicker/icons/add_preset = null
ColorPicker/icons/screen_picker = null
ColorPickerButton/colors/font_color = Color( 0, 0, 0, 1 )
ColorPickerButton/colors/font_color_disabled = Color( 0, 0, 0, 1 )
ColorPickerButton/colors/font_color_hover = Color( 0, 0, 0, 1 )
ColorPickerButton/colors/font_color_pressed = Color( 0, 0, 0, 1 )
ColorPickerButton/constants/hseparation = 0
ColorPickerButton/fonts/font = null
ColorPickerButton/styles/disabled = null
ColorPickerButton/styles/focus = null
ColorPickerButton/styles/hover = null
ColorPickerButton/styles/normal = null
ColorPickerButton/styles/pressed = null
Dialogs/constants/button_margin = 0
Dialogs/constants/margin = 0
EditorIcons/icons/ResizedFile = null
EditorIcons/icons/ResizedFolder = null
FileDialog/colors/files_disabled = Color( 1, 1, 1, 1 )
FileDialog/icons/folder = null
FileDialog/icons/reload = null
Fonts/fonts/large = null
Fonts/fonts/normal = null
GraphEdit/icons/minus = null
GraphEdit/icons/more = null
GraphEdit/icons/reset = null
GraphEdit/styles/bg = null
GraphNode/colors/title_color = Color( 0, 0, 0, 1 )
GraphNode/constants/close_offset = 0
GraphNode/constants/port_offset = 0
GraphNode/constants/separation = 0
GraphNode/constants/title_offset = 0
GraphNode/fonts/title_font = null
GraphNode/icons/close = null
GraphNode/icons/port = null
GraphNode/styles/defaultfocus = null
GraphNode/styles/defaultframe = null
GraphNode/styles/frame = null
GraphNode/styles/selectedframe = null
GridContainer/constants/hseparation = 0
GridContainer/constants/vseparation = 0
HBoxContainer/constants/separation = 0
HButtonArray/colors/font_color = Color( 0, 0, 0, 1 )
HButtonArray/colors/font_color_selected = Color( 0, 0, 0, 1 )
HButtonArray/constants/button_separator = 0
HButtonArray/constants/icon_separator = 0
HButtonArray/fonts/font = null
HButtonArray/fonts/font_selected = null
HButtonArray/styles/focus = null
HButtonArray/styles/hover = null
HButtonArray/styles/normal = null
HButtonArray/styles/selected = null
HScrollBar/icons/decrement = null
HScrollBar/icons/decrement_hilite = null
HScrollBar/icons/increment = null
HScrollBar/icons/increment_hilite = null
HScrollBar/styles/grabber = null
HScrollBar/styles/grabber_hilite = null
HScrollBar/styles/scroll = null
HScrollBar/styles/scroll_focus = null
HSeparator/constants/separation = 0
HSeparator/styles/separator = null
HSlider/icons/grabber = null
HSlider/icons/grabber_hilite = null
HSlider/icons/tick = null
HSlider/styles/focus = null
HSlider/styles/grabber_hilite = null
HSlider/styles/slider = null
HSplitContainer/constants/autohide = 0
HSplitContainer/constants/separation = 0
HSplitContainer/icons/grabber = null
HSplitContainer/styles/bg = null
Icons/icons/close = null
Icons/icons/logo = null
ItemList/colors/font_color = Color( 1, 1, 1, 1 )
ItemList/colors/font_color_selected = Color( 1, 1, 1, 1 )
ItemList/colors/guide_color = Color( 1, 1, 1, 1 )
ItemList/constants/hseparation = 0
ItemList/constants/icon_margin = 0
ItemList/constants/line_separation = 0
ItemList/constants/vseparation = 0
ItemList/fonts/font = null
ItemList/styles/bg = null
ItemList/styles/bg_focus = null
ItemList/styles/cursor = null
ItemList/styles/cursor_unfocused = null
ItemList/styles/selected = null
ItemList/styles/selected_focus = null
Label/colors/font_color = Color( 1, 1, 1, 1 )
Label/colors/font_color_shadow = Color( 1, 1, 1, 0 )
Label/constants/line_spacing = 3
Label/constants/shadow_as_outline = 0
Label/constants/shadow_offset_x = 1
Label/constants/shadow_offset_y = 1
Label/fonts/font = null
LineEdit/colors/cursor_color = Color( 1, 1, 1, 1 )
LineEdit/colors/font_color = Color( 1, 1, 1, 1 )
LineEdit/colors/font_color_selected = Color( 1, 1, 1, 1 )
LineEdit/colors/selection_color = Color( 1, 1, 1, 1 )
LineEdit/constants/minimum_spaces = 0
LineEdit/fonts/font = null
LineEdit/styles/focus = null
LineEdit/styles/normal = null
LineEdit/styles/read_only = null
LinkButton/colors/font_color = Color( 0, 0, 0, 1 )
LinkButton/colors/font_color_hover = Color( 0, 0, 0, 1 )
LinkButton/colors/font_color_pressed = Color( 0, 0, 0, 1 )
LinkButton/constants/underline_spacing = 0
LinkButton/fonts/font = null
MarginContainer/constants/margin_bottom = 0
MarginContainer/constants/margin_left = 0
MarginContainer/constants/margin_right = 0
MarginContainer/constants/margin_top = 0
MenuButton/colors/font_color = Color( 0, 0, 0, 1 )
MenuButton/colors/font_color_disabled = Color( 0, 0, 0, 1 )
MenuButton/colors/font_color_hover = Color( 0, 0, 0, 1 )
MenuButton/colors/font_color_pressed = Color( 0, 0, 0, 1 )
MenuButton/constants/hseparation = 0
MenuButton/fonts/font = null
MenuButton/styles/disabled = null
MenuButton/styles/focus = null
MenuButton/styles/hover = null
MenuButton/styles/normal = null
MenuButton/styles/pressed = null
OptionButton/colors/font_color = Color( 0, 0, 0, 1 )
OptionButton/colors/font_color_disabled = Color( 0, 0, 0, 1 )
OptionButton/colors/font_color_hover = Color( 0, 0, 0, 1 )
OptionButton/colors/font_color_pressed = Color( 0, 0, 0, 1 )
OptionButton/constants/arrow_margin = 0
OptionButton/constants/hseparation = 0
OptionButton/fonts/font = null
OptionButton/icons/arrow = null
OptionButton/styles/disabled = null
OptionButton/styles/focus = null
OptionButton/styles/hover = null
OptionButton/styles/normal = null
OptionButton/styles/pressed = null
Panel/styles/panel = null
Panel/styles/panelf = null
Panel/styles/panelnc = null
PanelContainer/styles/panel = null
PopupMenu/colors/font_color = Color( 1, 1, 1, 1 )
PopupMenu/colors/font_color_accel = Color( 1, 1, 1, 1 )
PopupMenu/colors/font_color_disabled = Color( 1, 1, 1, 1 )
PopupMenu/colors/font_color_hover = Color( 1, 1, 1, 1 )
PopupMenu/constants/hseparation = 0
PopupMenu/constants/vseparation = 0
PopupMenu/fonts/font = null
PopupMenu/icons/checked = null
PopupMenu/icons/submenu = null
PopupMenu/icons/unchecked = null
PopupMenu/styles/hover = null
PopupMenu/styles/panel = null
PopupMenu/styles/panel_disabled = null
PopupMenu/styles/separator = null
PopupPanel/styles/panel = null
ReferenceFrame/styles/border = null
RichTextLabel/colors/default_color = Color( 1, 1, 1, 1 )
RichTextLabel/colors/font_color_selected = Color( 1, 1, 1, 1 )
RichTextLabel/colors/selection_color = Color( 1, 1, 1, 1 )
RichTextLabel/constants/line_separation = 0
RichTextLabel/constants/table_hseparation = 0
RichTextLabel/constants/table_vseparation = 0
RichTextLabel/fonts/bold_font = null
RichTextLabel/fonts/bold_italics_font = null
RichTextLabel/fonts/italics_font = null
RichTextLabel/fonts/mono_font = null
RichTextLabel/fonts/normal_font = null
RichTextLabel/styles/focus = null
SpinBox/icons/updown = null
TabContainer/colors/font_color_bg = Color( 0, 0, 0, 1 )
TabContainer/colors/font_color_fg = Color( 0, 0, 0, 1 )
TabContainer/constants/hseparation = 0
TabContainer/constants/label_valign_bg = 0
TabContainer/constants/label_valign_fg = 0
TabContainer/constants/side_margin = 0
TabContainer/constants/top_margin = 0
TabContainer/fonts/font = null
TabContainer/icons/decrement = null
TabContainer/icons/decrement_hilite = null
TabContainer/icons/increment = null
TabContainer/icons/increment_hilite = null
TabContainer/icons/menu = null
TabContainer/icons/menu_hilite = null
TabContainer/styles/panel = null
TabContainer/styles/tab_bg = null
TabContainer/styles/tab_fg = null
Tabs/colors/font_color_bg = Color( 1, 1, 1, 1 )
Tabs/colors/font_color_fg = Color( 1, 1, 1, 1 )
Tabs/constants/hseparation = 0
Tabs/constants/label_valign_bg = 0
Tabs/constants/label_valign_fg = 0
Tabs/constants/top_margin = 0
Tabs/fonts/font = null
Tabs/icons/close = null
Tabs/icons/decrement = null
Tabs/icons/decrement_hilite = null
Tabs/icons/increment = null
Tabs/icons/increment_hilite = null
Tabs/styles/button = null
Tabs/styles/button_pressed = null
Tabs/styles/panel = null
Tabs/styles/tab_bg = null
Tabs/styles/tab_fg = null
TextEdit/colors/brace_mismatch_color = Color( 0, 0, 0, 1 )
TextEdit/colors/breakpoint_color = Color( 0, 0, 0, 1 )
TextEdit/colors/caret_background_color = Color( 0, 0, 0, 1 )
TextEdit/colors/caret_color = Color( 0, 0, 0, 1 )
TextEdit/colors/completion_background_color = Color( 0, 0, 0, 1 )
TextEdit/colors/completion_existing_color = Color( 0, 0, 0, 1 )
TextEdit/colors/completion_font_color = Color( 0, 0, 0, 1 )
TextEdit/colors/completion_scroll_color = Color( 0, 0, 0, 1 )
TextEdit/colors/completion_selected_color = Color( 0, 0, 0, 1 )
TextEdit/colors/current_line_color = Color( 0, 0, 0, 1 )
TextEdit/colors/font_color = Color( 0, 0, 0, 1 )
TextEdit/colors/font_color_selected = Color( 0, 0, 0, 1 )
TextEdit/colors/function_color = Color( 0, 0, 0, 1 )
TextEdit/colors/line_number_color = Color( 0, 0, 0, 1 )
TextEdit/colors/mark_color = Color( 0, 0, 0, 1 )
TextEdit/colors/member_variable_color = Color( 0, 0, 0, 1 )
TextEdit/colors/number_color = Color( 0, 0, 0, 1 )
TextEdit/colors/selection_color = Color( 0, 0, 0, 1 )
TextEdit/colors/symbol_color = Color( 0, 0, 0, 1 )
TextEdit/colors/word_highlighted_color = Color( 0, 0, 0, 1 )
TextEdit/constants/completion_lines = 0
TextEdit/constants/completion_max_width = 0
TextEdit/constants/completion_scroll_width = 0
TextEdit/constants/line_spacing = 0
TextEdit/fonts/font = null
TextEdit/icons/tab = null
TextEdit/styles/completion = null
TextEdit/styles/focus = null
TextEdit/styles/normal = null
ToolButton/colors/font_color = Color( 1, 1, 1, 1 )
ToolButton/colors/font_color_disabled = Color( 0, 0, 0, 1 )
ToolButton/colors/font_color_hover = Color( 0, 0, 0, 1 )
ToolButton/colors/font_color_pressed = Color( 0, 0, 0, 1 )
ToolButton/constants/hseparation = 0
ToolButton/fonts/font = null
ToolButton/styles/disabled = null
ToolButton/styles/focus = null
ToolButton/styles/hover = null
ToolButton/styles/normal = null
ToolButton/styles/pressed = null
TooltipLabel/colors/font_color = Color( 1, 1, 1, 1 )
TooltipLabel/colors/font_color_shadow = Color( 1, 1, 1, 1 )
TooltipLabel/constants/shadow_offset_x = 0
TooltipLabel/constants/shadow_offset_y = 0
TooltipLabel/fonts/font = null
TooltipPanel/styles/panel = null
Tree/colors/cursor_color = Color( 0, 0, 0, 1 )
Tree/colors/drop_position_color = Color( 0, 0, 0, 1 )
Tree/colors/font_color = Color( 0, 0, 0, 1 )
Tree/colors/font_color_selected = Color( 0, 0, 0, 1 )
Tree/colors/guide_color = Color( 0, 0, 0, 1 )
Tree/colors/relationship_line_color = Color( 0, 0, 0, 1 )
Tree/colors/selection_color = Color( 0, 0, 0, 1 )
Tree/colors/title_button_color = Color( 0, 0, 0, 1 )
Tree/constants/button_margin = 0
Tree/constants/draw_relationship_lines = 0
Tree/constants/guide_width = 0
Tree/constants/hseparation = 0
Tree/constants/item_margin = 0
Tree/constants/scroll_border = 0
Tree/constants/scroll_speed = 0
Tree/constants/vseparation = 0
Tree/fonts/font = null
Tree/fonts/title_button_font = null
Tree/icons/arrow = null
Tree/icons/arrow_collapsed = null
Tree/icons/checked = null
Tree/icons/select_arrow = null
Tree/icons/unchecked = null
Tree/icons/updown = null
Tree/styles/bg = null
Tree/styles/bg_focus = null
Tree/styles/button_pressed = null
Tree/styles/cursor = null
Tree/styles/cursor_unfocused = null
Tree/styles/selected = null
Tree/styles/selected_focus = null
Tree/styles/title_button_hover = null
Tree/styles/title_button_normal = null
Tree/styles/title_button_pressed = null
VBoxContainer/constants/separation = 0
VButtonArray/colors/font_color = Color( 0, 0, 0, 1 )
VButtonArray/colors/font_color_selected = Color( 0, 0, 0, 1 )
VButtonArray/constants/button_separator = 0
VButtonArray/constants/icon_separator = 0
VButtonArray/fonts/font = null
VButtonArray/fonts/font_selected = null
VButtonArray/styles/focus = null
VButtonArray/styles/hover = null
VButtonArray/styles/normal = null
VButtonArray/styles/selected = null
VScrollBar/icons/decrement = null
VScrollBar/icons/decrement_hilite = null
VScrollBar/icons/increment = null
VScrollBar/icons/increment_hilite = null
VScrollBar/styles/grabber = null
VScrollBar/styles/grabber_hilite = null
VScrollBar/styles/scroll = null
VScrollBar/styles/scroll_focus = null
VSeparator/constants/separation = 0
VSeparator/styles/separator = null
VSlider/icons/grabber = null
VSlider/icons/grabber_hilite = null
VSlider/icons/tick = null
VSlider/styles/grabber_hilite = null
VSlider/styles/slider = null
VSplitContainer/constants/autohide = 0
VSplitContainer/constants/separation = 0
VSplitContainer/icons/grabber = null
VSplitContainer/styles/bg = null
WindowDialog/colors/title_color = Color( 0, 0, 0, 1 )
WindowDialog/constants/close_h_ofs = 22
WindowDialog/constants/close_v_ofs = 20
WindowDialog/constants/title_height = 20
WindowDialog/constants/titlebar_height = 18
WindowDialog/fonts/title_font = ExtResource( 1 )
WindowDialog/icons/close = null
WindowDialog/icons/close_hilite = null
WindowDialog/styles/panel = null

