[gd_scene load_steps=4 format=1]

[ext_resource path="res://States/MainState.gd" type="Script" id=1]
[ext_resource path="res://Assets/UI/Themes/DefaultPixelButtonTheme.tres" type="Theme" id=2]
[ext_resource path="res://Assets/UI/Fonts/PixelFont32.fnt" type="BitmapFont" id=3]

[node name="MainState" type="Node2D"]

script/script = ExtResource( 1 )

[node name="toBattleBtn" type="Button" parent="."]

focus/ignore_mouse = false
focus/stop_mouse = true
size_flags/horizontal = 2
size_flags/vertical = 2
theme/theme = ExtResource( 2 )
margin/left = 755.0
margin/top = 551.0
margin/right = 933.0
margin/bottom = 611.0
custom_fonts/font = ExtResource( 3 )
toggle_mode = false
enabled_focus_mode = 2
shortcut = null
text = "To Battle!"
flat = false


